<?xml version="1.0" encoding="utf-8"?>
<!-- Generator: Adobe Illustrator 24.1.0, SVG Export Plug-In . SVG Version: 6.00 Build 0)  -->
<svg version="1.1" xmlns="http://www.w3.org/2000/svg" xmlns:xlink="http://www.w3.org/1999/xlink" x="0px" y="0px"
	 viewBox="0 0 35 35" style="enable-background:new 0 0 35 35;" xml:space="preserve">
<style type="text/css">
	.st0{display:none;}
	.st1{display:inline;}
	.st2{fill:#13243D;}
	.st3{fill:#FFFFFF;}
</style>
<g id="Bodenablass" class="st0">
	<g class="st1">
		<g>
			<path class="st2" d="M17.5,35C27.17,35,35,27.17,35,17.5S27.17,0,17.5,0S0,7.83,0,17.5S7.83,35,17.5,35"/>
		</g>
		<g>
			<path class="st3" d="M15.33,13.9c0-0.13-0.03-0.26-0.08-0.39c-0.11-0.27-0.33-0.49-0.6-0.6c-0.08-0.03-0.17-0.04-0.26-0.05
				c-0.05-0.01-0.1-0.03-0.16-0.03H6.93c-0.61,0-1.1,0.49-1.1,1.1c0,0.61,0.49,1.1,1.1,1.1h4.66l-3.71,3.71
				c-0.43,0.43-0.43,1.12,0,1.55c0.21,0.21,0.5,0.32,0.78,0.32c0.28,0,0.56-0.11,0.78-0.32l5.59-5.59c0.01-0.01,0.01-0.02,0.02-0.03
				c0.09-0.1,0.17-0.21,0.22-0.33c0.06-0.13,0.08-0.28,0.08-0.42c0,0,0,0,0,0C15.34,13.92,15.33,13.91,15.33,13.9z"/>
			<path class="st3" d="M28.07,12.83h-7.31c-0.07,0-0.12,0.03-0.19,0.04c-0.08,0.01-0.16,0.02-0.23,0.05
				c-0.27,0.11-0.49,0.33-0.6,0.6c-0.03,0.07-0.03,0.15-0.05,0.23c-0.01,0.06-0.04,0.12-0.04,0.19c0,0.04,0.02,0.08,0.03,0.13
				c0.01,0.1,0.02,0.2,0.06,0.29c0.06,0.14,0.14,0.26,0.24,0.36l5.59,5.59c0.21,0.21,0.5,0.32,0.78,0.32s0.56-0.11,0.78-0.32
				c0.43-0.43,0.43-1.12,0-1.55l-3.71-3.71h4.65c0.61,0,1.1-0.49,1.1-1.1C29.17,13.32,28.68,12.83,28.07,12.83z"/>
		</g>
	</g>
</g>
<g id="Probenahme" class="st0">
	<g class="st1">
		<path class="st2" d="M17.5,35C27.17,35,35,27.17,35,17.5S27.17,0,17.5,0C7.83,0,0,7.83,0,17.5S7.83,35,17.5,35"/>
		<g>
			<path class="st3" d="M15.25,19.1c-0.06-0.14-0.14-0.26-0.24-0.36l-5.59-5.59c-0.43-0.43-1.12-0.43-1.55,0s-0.43,1.12,0,1.55
				l3.71,3.71H6.93c-0.61,0-1.1,0.49-1.1,1.1c0,0.61,0.49,1.1,1.1,1.1h7.31c0.14,0,0.29-0.03,0.42-0.08
				c0.27-0.11,0.48-0.33,0.59-0.59C15.37,19.67,15.37,19.37,15.25,19.1z"/>
			<path class="st3" d="M28.07,18.42h-4.65l3.71-3.71c0.43-0.43,0.43-1.12,0-1.55c-0.43-0.43-1.12-0.43-1.55,0l-5.58,5.59
				c-0.1,0.1-0.18,0.22-0.24,0.36c-0.11,0.27-0.11,0.57,0,0.84c0.11,0.27,0.33,0.48,0.59,0.59c0.13,0.06,0.28,0.08,0.42,0.08h7.31
				c0.61,0,1.1-0.49,1.1-1.1C29.17,18.91,28.68,18.42,28.07,18.42z"/>
		</g>
	</g>
</g>
<g id="Layer_3">
	<g>
		<g>
			<path class="st2" d="M17.5,35C27.17,35,35,27.17,35,17.5S27.17,0,17.5,0S0,7.83,0,17.5S7.83,35,17.5,35"/>
		</g>
		<g>
			<polygon class="st3" points="20.29,17.46 16.46,13.66 16.46,15.45 3.78,15.45 3.78,19.48 16.46,19.48 16.46,21.28 			"/>
			<polygon class="st3" points="27.28,27.45 27.27,22.05 25.97,23.35 22.09,19.47 19.31,22.24 23.2,26.13 21.88,27.44 			"/>
			<polygon class="st3" points="27.28,7.52 21.88,7.53 23.16,8.81 19.3,12.68 22.07,15.45 25.93,11.58 27.27,12.92 			"/>
			<path class="st3" d="M23.88,20.12l1.43,1.43c0.63-1.19,0.99-2.54,0.99-3.97c0-1.5-0.39-2.92-1.08-4.14l-1.42,1.42
				c0.38,0.83,0.59,1.75,0.59,2.72C24.39,18.48,24.2,19.34,23.88,20.12z"/>
			<g>
				<path class="st3" d="M11.9,14.64c1.08-2.16,3.32-3.65,5.89-3.65c0.62,0,1.22,0.09,1.79,0.25l1.5-1.5
					c-1.01-0.43-2.12-0.66-3.29-0.66c-3.65,0-6.78,2.32-7.98,5.56H11.9z"/>
				<path class="st3" d="M17.8,24.18c-2.67,0-4.98-1.6-6.01-3.89H9.74c1.13,3.37,4.32,5.8,8.06,5.8c1.24,0,2.41-0.27,3.48-0.75
					l-1.48-1.48C19.16,24.07,18.49,24.18,17.8,24.18z"/>
			</g>
		</g>
	</g>
</g>
</svg>
