<?xml version="1.0" encoding="utf-8"?>
<!-- Generator: Adobe Illustrator 24.1.0, SVG Export Plug-In . SVG Version: 6.00 Build 0)  -->
<svg version="1.1" id="Layer_1" xmlns="http://www.w3.org/2000/svg" xmlns:xlink="http://www.w3.org/1999/xlink" x="0px" y="0px"
	 viewBox="0 0 35 35" style="enable-background:new 0 0 35 35;" xml:space="preserve">
<style type="text/css">
	.st0{fill:#13243D;}
	.st1{fill:#FFFFFF;}
</style>
<g>
	<g>
		<path class="st0" d="M17.5,35C27.17,35,35,27.17,35,17.5S27.17,0,17.5,0S0,7.83,0,17.5S7.83,35,17.5,35"/>
	</g>
	<g>
		<path class="st1" d="M15.33,13.9c0-0.13-0.03-0.26-0.08-0.39c-0.11-0.27-0.33-0.49-0.6-0.6c-0.08-0.03-0.17-0.04-0.26-0.05
			c-0.05-0.01-0.1-0.03-0.16-0.03H6.93c-0.61,0-1.1,0.49-1.1,1.1c0,0.61,0.49,1.1,1.1,1.1h4.66l-3.71,3.71
			c-0.43,0.43-0.43,1.12,0,1.55c0.21,0.21,0.5,0.32,0.78,0.32c0.28,0,0.56-0.11,0.78-0.32l5.59-5.59c0.01-0.01,0.01-0.02,0.02-0.03
			c0.09-0.1,0.17-0.21,0.22-0.33c0.06-0.13,0.08-0.28,0.08-0.42c0,0,0,0,0,0C15.34,13.92,15.33,13.91,15.33,13.9z"/>
		<path class="st1" d="M28.07,12.83h-7.31c-0.07,0-0.12,0.03-0.19,0.04c-0.08,0.01-0.16,0.02-0.23,0.05
			c-0.27,0.11-0.49,0.33-0.6,0.6c-0.03,0.07-0.03,0.15-0.05,0.23c-0.01,0.06-0.04,0.12-0.04,0.19c0,0.04,0.02,0.08,0.03,0.13
			c0.01,0.1,0.02,0.2,0.06,0.29c0.06,0.14,0.14,0.26,0.24,0.36l5.59,5.59c0.21,0.21,0.5,0.32,0.78,0.32s0.56-0.11,0.78-0.32
			c0.43-0.43,0.43-1.12,0-1.55l-3.71-3.71h4.65c0.61,0,1.1-0.49,1.1-1.1C29.17,13.32,28.68,12.83,28.07,12.83z"/>
	</g>
</g>
</svg>
