<?xml version="1.0" encoding="utf-8"?>
<!-- Generator: Adobe Illustrator 24.1.0, SVG Export Plug-In . SVG Version: 6.00 Build 0)  -->
<svg version="1.1" id="Layer_1" xmlns="http://www.w3.org/2000/svg" xmlns:xlink="http://www.w3.org/1999/xlink" x="0px" y="0px"
	 viewBox="0 0 180 180" style="enable-background:new 0 0 180 180;" xml:space="preserve">
<style type="text/css">
	.st0{fill:none;stroke:#1F273D;stroke-width:3;stroke-linecap:round;stroke-linejoin:round;stroke-miterlimit:10;}
	
		.st1{clip-path:url(#SVGID_2_);fill:none;stroke:#1F273D;stroke-width:3;stroke-linecap:round;stroke-linejoin:round;stroke-miterlimit:10;}
</style>
<g>
	<rect x="76.13" y="111.77" class="st0" width="41.82" height="5.07"/>
	<rect x="76.13" y="121.91" class="st0" width="41.82" height="5.07"/>
	<rect x="76.13" y="132.05" class="st0" width="41.82" height="5.07"/>
	<rect x="76.13" y="142.19" class="st0" width="41.82" height="5.07"/>
	<rect x="76.13" y="152.33" class="st0" width="41.82" height="5.07"/>
	<g>
		<defs>
			<rect id="SVGID_1_" x="42.03" y="90" width="95.94" height="90"/>
		</defs>
		<clipPath id="SVGID_2_">
			<use xlink:href="#SVGID_1_"  style="overflow:visible;"/>
		</clipPath>
		<polygon class="st1" points="50.06,132.05 43.6,132.05 43.6,137.12 50.06,137.12 50.06,140.46 55.86,144.09 55.86,125.08 
			50.06,128.7 		"/>
		<polygon class="st1" points="120.21,170.52 116.39,166.7 112.05,166.7 112.05,162.47 82.02,162.47 82.02,166.7 77.68,166.7 
			73.86,170.52 73.86,173.36 69.99,173.36 69.99,178.43 124.09,178.43 124.09,173.36 120.21,173.36 		"/>
		<polygon class="st1" points="127.38,111.77 123.02,111.77 123.02,157.4 127.38,157.4 136.4,150.31 136.4,118.85 		"/>
		<path class="st1" d="M71.06,111.77h-2.89c-4,0-7.24,3.24-7.24,7.24v31.14c0,4,3.24,7.24,7.24,7.24h2.89V111.77z"/>
		<path class="st1" d="M93.55,101.66h-5.04v-5.04h5.04V101.66z M109.13,101.75l-7.97-10.18H82.02v15.12h27.11V101.75z"/>
	</g>
</g>
</svg>
