<?xml version="1.0" encoding="utf-8"?>
<!-- Generator: Adobe Illustrator 24.1.0, SVG Export Plug-In . SVG Version: 6.00 Build 0)  -->
<svg version="1.1" xmlns="http://www.w3.org/2000/svg" xmlns:xlink="http://www.w3.org/1999/xlink" x="0px" y="0px"
	 viewBox="0 0 180 180" style="enable-background:new 0 0 180 180;" xml:space="preserve">
<style type="text/css">
	.st0{display:none;}
	.st1{display:inline;}
	.st2{fill:none;stroke:#1F273D;stroke-width:3;stroke-linecap:round;stroke-linejoin:round;stroke-miterlimit:10;}
	
		.st3{clip-path:url(#SVGID_2_);fill:none;stroke:#1F273D;stroke-width:3;stroke-linecap:round;stroke-linejoin:round;stroke-miterlimit:10;}
	
		.st4{clip-path:url(#SVGID_4_);fill:none;stroke:#1F273D;stroke-width:3;stroke-linecap:round;stroke-linejoin:round;stroke-miterlimit:10;}
	
		.st5{clip-path:url(#SVGID_6_);fill:none;stroke:#1F273D;stroke-width:3;stroke-linecap:round;stroke-linejoin:round;stroke-miterlimit:10;}
	
		.st6{clip-path:url(#SVGID_8_);fill:none;stroke:#1F273D;stroke-width:3;stroke-linecap:round;stroke-linejoin:round;stroke-miterlimit:10;}
	
		.st7{clip-path:url(#SVGID_10_);fill:none;stroke:#1F273D;stroke-width:3;stroke-linecap:round;stroke-linejoin:round;stroke-miterlimit:10;}
	.st8{display:inline;fill:#FFFFFF;}
	.st9{clip-path:url(#SVGID_12_);fill:#FFFFFF;}
	.st10{clip-path:url(#SVGID_14_);fill:#1F273D;}
	.st11{clip-path:url(#SVGID_16_);fill:#FFFFFF;}
	.st12{clip-path:url(#SVGID_18_);fill:none;stroke:#1F273D;stroke-width:3;}
	.st13{fill:none;stroke:#1F273D;stroke-width:3;stroke-linejoin:round;}
	.st14{fill:none;stroke:#1F273D;stroke-width:3;stroke-linecap:round;}
	.st15{clip-path:url(#SVGID_20_);fill:none;stroke:#1F273D;stroke-width:3;}
	.st16{clip-path:url(#SVGID_22_);fill:#1F273D;}
	.st17{clip-path:url(#SVGID_24_);fill:#1F273D;}
	.st18{clip-path:url(#SVGID_26_);fill:none;stroke:#1F273D;stroke-width:3;stroke-linejoin:round;}
	.st19{clip-path:url(#SVGID_28_);fill:none;stroke:#1F273D;stroke-width:3;}
	.st20{clip-path:url(#SVGID_30_);fill:none;stroke:#1F273D;stroke-width:3;}
	.st21{fill:none;stroke:#1F273D;stroke-width:3;stroke-linecap:round;stroke-linejoin:round;}
	.st22{clip-path:url(#SVGID_32_);fill:none;stroke:#1F273D;stroke-width:3;}
	.st23{clip-path:url(#SVGID_34_);fill:none;stroke:#1F273D;stroke-width:3;}
	.st24{clip-path:url(#SVGID_36_);fill:none;stroke:#1F273D;stroke-width:3;}
	.st25{clip-path:url(#SVGID_38_);fill:none;stroke:#1F273D;stroke-width:3;}
	.st26{clip-path:url(#SVGID_40_);fill:none;stroke:#1F273D;stroke-width:3;stroke-linecap:round;stroke-linejoin:round;}
	.st27{clip-path:url(#SVGID_42_);fill:none;stroke:#1F273D;stroke-width:3;stroke-linejoin:round;}
	.st28{clip-path:url(#SVGID_42_);fill:none;stroke:#1F273D;stroke-width:3;stroke-linecap:round;stroke-linejoin:round;}
	.st29{clip-path:url(#SVGID_42_);fill:none;stroke:#1F273D;stroke-width:3;stroke-linecap:round;}
	.st30{clip-path:url(#SVGID_42_);fill:none;stroke:#1F273D;stroke-width:3;}
	.st31{clip-path:url(#SVGID_44_);fill:#1F273D;}
</style>
<g id="Layer_1" class="st0">
	<g id="pneumatisch">
		<g class="st1">
			<rect x="76.13" y="111.77" class="st2" width="41.82" height="5.07"/>
			<rect x="76.13" y="121.91" class="st2" width="41.82" height="5.07"/>
			<rect x="76.13" y="132.05" class="st2" width="41.82" height="5.07"/>
			<rect x="76.13" y="142.19" class="st2" width="41.82" height="5.07"/>
			<rect x="76.13" y="152.33" class="st2" width="41.82" height="5.07"/>
			<g>
				<g>
					<defs>
						<rect id="SVGID_1_" x="42.03" y="90" width="95.94" height="90"/>
					</defs>
					<clipPath id="SVGID_2_">
						<use xlink:href="#SVGID_1_"  style="overflow:visible;"/>
					</clipPath>
					<polygon class="st3" points="50.06,132.05 43.6,132.05 43.6,137.12 50.06,137.12 50.06,140.46 55.86,144.09 55.86,125.08 
						50.06,128.7 					"/>
				</g>
				<g>
					<defs>
						<rect id="SVGID_3_" x="42.03" y="90" width="95.94" height="90"/>
					</defs>
					<clipPath id="SVGID_4_">
						<use xlink:href="#SVGID_3_"  style="overflow:visible;"/>
					</clipPath>
					<polygon class="st4" points="120.21,170.52 116.39,166.7 112.05,166.7 112.05,162.47 82.02,162.47 82.02,166.7 77.68,166.7 
						73.86,170.52 73.86,173.36 69.99,173.36 69.99,178.43 124.09,178.43 124.09,173.36 120.21,173.36 					"/>
				</g>
				<g>
					<defs>
						<rect id="SVGID_5_" x="42.03" y="90" width="95.94" height="90"/>
					</defs>
					<clipPath id="SVGID_6_">
						<use xlink:href="#SVGID_5_"  style="overflow:visible;"/>
					</clipPath>
					<polygon class="st5" points="127.38,111.77 123.02,111.77 123.02,157.4 127.38,157.4 136.4,150.31 136.4,118.85 					"/>
				</g>
				<g>
					<defs>
						<rect id="SVGID_7_" x="42.03" y="90" width="95.94" height="90"/>
					</defs>
					<clipPath id="SVGID_8_">
						<use xlink:href="#SVGID_7_"  style="overflow:visible;"/>
					</clipPath>
					<path class="st6" d="M71.06,111.77h-2.89c-4,0-7.24,3.24-7.24,7.24v31.14c0,4,3.24,7.24,7.24,7.24h2.89V111.77z"/>
				</g>
				<g>
					<defs>
						<rect id="SVGID_9_" x="42.03" y="90" width="95.94" height="90"/>
					</defs>
					<clipPath id="SVGID_10_">
						<use xlink:href="#SVGID_9_"  style="overflow:visible;"/>
					</clipPath>
					<path class="st7" d="M93.55,101.66h-5.04v-5.04h5.04V101.66z M109.13,101.75l-7.97-10.18H82.02v15.12h27.11V101.75z"/>
				</g>
			</g>
		</g>
	</g>
	<g id="Manuel">
		<rect x="79.43" y="-1.02" class="st8" width="6.79" height="0.62"/>
		<rect x="77.57" y="23.84" class="st8" width="10.51" height="8.03"/>
		<g class="st1">
			<g>
				<defs>
					<rect id="SVGID_11_" x="36.23" y="-5.36" width="93.18" height="91.84"/>
				</defs>
				<clipPath id="SVGID_12_">
					<use xlink:href="#SVGID_11_"  style="overflow:visible;"/>
				</clipPath>
				<path class="st9" d="M115.75,76.4V44.72c-2.69,1.4-5.62,2.1-8.55,2.1c-1.75,0-3.49-0.25-5.18-0.74
					c-0.91-0.98-1.92-1.88-2.99-2.71c-0.59,0.52-1.35,0.84-2.19,0.84H68.81c-0.84,0-1.61-0.32-2.19-0.84
					c-1.08,0.83-2.08,1.73-2.99,2.71c-1.69,0.49-3.44,0.74-5.18,0.74c-2.94,0-5.87-0.71-8.55-2.1V76.4c2.69-1.4,5.62-2.1,8.55-2.1
					c1.74,0,3.49,0.25,5.18,0.74c4.59,4.95,11.48,8.11,19.19,8.11s14.61-3.15,19.19-8.11c1.69-0.49,3.44-0.74,5.18-0.74
					C110.14,74.3,113.07,75,115.75,76.4"/>
			</g>
		</g>
		<rect x="39.57" y="39.15" class="st8" width="6.98" height="44.83"/>
		<rect x="119.09" y="38.14" class="st8" width="6.98" height="44.83"/>
		<g class="st1">
			<g>
				<defs>
					<rect id="SVGID_13_" x="43.41" y="87.48" width="93.18" height="91.84"/>
				</defs>
				<clipPath id="SVGID_14_">
					<use xlink:href="#SVGID_13_"  style="overflow:visible;"/>
				</clipPath>
				<path class="st10" d="M95.25,123.71h-10.5v-8.03h10.51v8.03H95.25z M77.65,106.56h24.69v5.78H77.65V106.56z M93.4,91.44h-6.8
					v-0.62h6.79v0.62H93.4z M48.53,98.76v-0.43c0-1.95,1.59-3.54,3.54-3.54h75.86c1.95,0,3.54,1.59,3.54,3.54v0.43
					c0,1.95-1.59,3.54-3.54,3.54H52.07C50.12,102.3,48.53,100.7,48.53,98.76 M75.99,127.05h28.02v6.65H75.99V127.05z M46.75,130.98
					h6.98v44.83h-6.98V130.98z M90,175.98c-7.71,0-14.6-3.15-19.19-8.11c-1.69-0.49-3.44-0.74-5.18-0.74c-2.93,0-5.87,0.7-8.55,2.1
					v-31.69c2.69,1.4,5.62,2.1,8.55,2.1c1.74,0,3.49-0.25,5.18-0.74c0.91-0.98,1.91-1.88,2.99-2.71c0.59,0.52,1.35,0.84,2.19,0.84
					h28.02c0.84,0,1.6-0.32,2.19-0.84c1.08,0.83,2.08,1.73,2.99,2.71c1.69,0.49,3.44,0.74,5.18,0.74c2.93,0,5.86-0.7,8.55-2.1v31.68
					c-2.69-1.4-5.62-2.1-8.55-2.1c-1.75,0-3.49,0.25-5.18,0.74C104.61,172.83,97.71,175.98,90,175.98 M133.25,175.81h-6.98v-44.83
					h6.98V175.81z M133.25,127.64h-6.98c-1.84,0-3.34,1.49-3.34,3.34v2.75c-0.15,0.07-0.3,0.14-0.44,0.23
					c-2.45,1.54-5.25,2.35-8.11,2.35c-1.15,0-2.31-0.13-3.43-0.39c-1.05-1.05-2.21-2.03-3.46-2.93c-0.05-0.03-0.1-0.06-0.15-0.09
					v-5.86c0-1.84-1.5-3.34-3.34-3.34h-5.42v-8.03h3.75c1.84,0,3.34-1.49,3.34-3.34v-5.78c0-0.32-0.06-0.63-0.15-0.93h22.39
					c3.79,0,6.88-3.09,6.88-6.88v-0.43c0-3.79-3.09-6.88-6.88-6.88h-31.2v-0.62c0-1.84-1.49-3.34-3.34-3.34H86.6
					c-1.84,0-3.34,1.5-3.34,3.34v0.62h-31.2c-3.79,0-6.88,3.09-6.88,6.88v0.43c0,3.79,3.09,6.88,6.88,6.88h22.4
					c-0.09,0.3-0.15,0.6-0.15,0.93v5.78c0,1.84,1.49,3.34,3.34,3.34h3.75v8.03h-5.42c-1.84,0-3.34,1.5-3.34,3.34v5.86
					c-0.05,0.03-0.1,0.06-0.15,0.09c-1.24,0.89-2.4,1.88-3.46,2.93c-1.12,0.26-2.28,0.39-3.43,0.39c-2.86,0-5.67-0.81-8.11-2.35
					c-0.14-0.09-0.29-0.17-0.44-0.23v-2.75c0-1.84-1.49-3.34-3.34-3.34h-6.98c-1.84,0-3.34,1.49-3.34,3.34v44.83
					c0,1.84,1.49,3.34,3.34,3.34h6.98c1.84,0,3.34-1.49,3.34-3.34v-2.75c0.15-0.07,0.3-0.14,0.44-0.23
					c2.45-1.54,5.25-2.35,8.11-2.35c1.15,0,2.3,0.13,3.43,0.39c5.37,5.39,12.95,8.46,20.95,8.46s15.58-3.07,20.95-8.46
					c1.12-0.26,2.27-0.39,3.43-0.39c2.86,0,5.67,0.81,8.11,2.35c0.14,0.09,0.29,0.17,0.44,0.23v2.75c0,1.84,1.5,3.34,3.34,3.34h6.98
					c1.84,0,3.34-1.49,3.34-3.34v-44.83C136.59,129.14,135.09,127.64,133.25,127.64"/>
			</g>
		</g>
		<rect x="68.81" y="35.22" class="st8" width="28.02" height="6.65"/>
		<rect x="70.48" y="14.73" class="st8" width="24.69" height="5.78"/>
		<g class="st1">
			<g>
				<defs>
					<rect id="SVGID_15_" x="36.23" y="-5.36" width="93.18" height="91.84"/>
				</defs>
				<clipPath id="SVGID_16_">
					<use xlink:href="#SVGID_15_"  style="overflow:visible;"/>
				</clipPath>
				<path class="st11" d="M120.75,9.46c1.95,0,3.54-1.59,3.54-3.54V5.49c0-1.95-1.59-3.54-3.54-3.54H44.89
					c-1.95,0-3.54,1.6-3.54,3.54v0.43c0,1.95,1.59,3.54,3.54,3.54C44.89,9.46,120.75,9.46,120.75,9.46z"/>
			</g>
		</g>
	</g>
	<g id="Layer_3">
		<g class="st1">
			<g>
				<g>
					<defs>
						<rect id="SVGID_17_" x="29.37" y="90.5" width="121.25" height="90"/>
					</defs>
					<clipPath id="SVGID_18_">
						<use xlink:href="#SVGID_17_"  style="overflow:visible;"/>
					</clipPath>
					<path class="st12" d="M78.07,112.32H39.85c0,0-8.11,0-8.11,7.45v50.92c0,0,0,7.45,8.11,7.45h100.3c0,0,8.11,0,8.11-7.45v-50.92
						c0,0,0-7.45-8.11-7.45h-37.69"/>
				</g>
			</g>
			<polygon class="st13" points="73.82,112.62 73.82,158.87 79.57,158.87 79.57,142.15 100.43,142.15 100.43,158.87 106.18,158.87 
				106.18,112.62 			"/>
			<line class="st14" x1="90" y1="99.58" x2="90" y2="112.63"/>
			<g>
				<g>
					<defs>
						<rect id="SVGID_19_" x="29.37" y="90.5" width="121.25" height="90"/>
					</defs>
					<clipPath id="SVGID_20_">
						<use xlink:href="#SVGID_19_"  style="overflow:visible;"/>
					</clipPath>
					<path class="st15" d="M102.1,113.01v-12.03c0,0,0-8.11-8.11-8.11h-7.97c0,0-8.11,0-8.11,8.11v12.03"/>
				</g>
				<g>
					<defs>
						<rect id="SVGID_21_" x="29.37" y="90.5" width="121.25" height="90"/>
					</defs>
					<clipPath id="SVGID_22_">
						<use xlink:href="#SVGID_21_"  style="overflow:visible;"/>
					</clipPath>
					<path class="st16" d="M71.79,131.8c1.32,0,2.39-1.76,2.39-3.93s-1.07-3.93-2.39-3.93s-2.39,1.76-2.39,3.93
						C69.4,130.04,70.48,131.8,71.79,131.8"/>
				</g>
				<g>
					<defs>
						<rect id="SVGID_23_" x="29.37" y="90.5" width="121.25" height="90"/>
					</defs>
					<clipPath id="SVGID_24_">
						<use xlink:href="#SVGID_23_"  style="overflow:visible;"/>
					</clipPath>
					<path class="st17" d="M108.21,131.8c1.32,0,2.39-1.76,2.39-3.93s-1.07-3.93-2.39-3.93s-2.39,1.76-2.39,3.93
						C105.82,130.04,106.89,131.8,108.21,131.8"/>
				</g>
			</g>
		</g>
	</g>
	<g id="Layer_4" class="st1">
		<g>
			<g>
				<g>
					<defs>
						<rect id="SVGID_25_" x="17.68" y="90" width="144.64" height="90"/>
					</defs>
					<clipPath id="SVGID_26_">
						<use xlink:href="#SVGID_25_"  style="overflow:visible;"/>
					</clipPath>
					<path class="st18" d="M33.83,91.92c-4.23,0-7.67,3.43-7.67,7.67v40.48h102.01V99.58c0-4.23-3.43-7.67-7.67-7.67L33.83,91.92
						L33.83,91.92z"/>
				</g>
			</g>
			<rect x="128.19" y="110.48" class="st13" width="11.07" height="21.89"/>
			<rect x="144.08" y="110.48" class="st13" width="6.27" height="21.89"/>
			<g>
				<g>
					<defs>
						<rect id="SVGID_27_" x="17.68" y="90" width="144.64" height="90"/>
					</defs>
					<clipPath id="SVGID_28_">
						<use xlink:href="#SVGID_27_"  style="overflow:visible;"/>
					</clipPath>
					<path class="st19" d="M74.82,140.13v29.32c0,2.02,1.64,3.66,3.66,3.66c2.02,0,3.66-1.64,3.66-3.66v-29.32H74.82z"/>
				</g>
				<g>
					<defs>
						<rect id="SVGID_29_" x="17.68" y="90" width="144.64" height="90"/>
					</defs>
					<clipPath id="SVGID_30_">
						<use xlink:href="#SVGID_29_"  style="overflow:visible;"/>
					</clipPath>
					<path class="st20" d="M41.86,130.1c2.79,0,5.06-2.27,5.06-5.06s-2.27-5.06-5.06-5.06s-5.06,2.27-5.06,5.06
						C36.8,127.84,39.06,130.1,41.86,130.1z"/>
				</g>
			</g>
			<line class="st21" x1="30.88" y1="102.86" x2="123.23" y2="102.86"/>
			<g>
				<g>
					<defs>
						<rect id="SVGID_31_" x="17.68" y="90" width="144.64" height="90"/>
					</defs>
					<clipPath id="SVGID_32_">
						<use xlink:href="#SVGID_31_"  style="overflow:visible;"/>
					</clipPath>
					<path class="st22" d="M108.05,178.08h19.7c0,0,7.67,0,7.67-7.67v-22.63c0,0,0-7.67-7.67-7.67H27.26c0,0-7.67,0-7.67,7.67v22.63
						c0,0,0,7.67,7.67,7.67h18.95"/>
				</g>
				<g>
					<defs>
						<rect id="SVGID_33_" x="17.68" y="90" width="144.64" height="90"/>
					</defs>
					<clipPath id="SVGID_34_">
						<use xlink:href="#SVGID_33_"  style="overflow:visible;"/>
					</clipPath>
					<path class="st23" d="M156.65,131.64c2.07,0,3.75-4.41,3.75-9.86c0-5.44-1.68-9.86-3.75-9.86"/>
				</g>
				<g>
					<defs>
						<rect id="SVGID_35_" x="17.68" y="90" width="144.64" height="90"/>
					</defs>
					<clipPath id="SVGID_36_">
						<use xlink:href="#SVGID_35_"  style="overflow:visible;"/>
					</clipPath>
					<line class="st24" x1="156.65" y1="111.92" x2="151.4" y2="111.92"/>
				</g>
				<g>
					<defs>
						<rect id="SVGID_37_" x="17.68" y="90" width="144.64" height="90"/>
					</defs>
					<clipPath id="SVGID_38_">
						<use xlink:href="#SVGID_37_"  style="overflow:visible;"/>
					</clipPath>
					<line class="st25" x1="156.65" y1="131.64" x2="151.18" y2="131.64"/>
				</g>
			</g>
		</g>
	</g>
</g>
<g id="Layer_2" class="st0">
	<g class="st1">
		<g>
			<defs>
				<rect id="SVGID_39_" x="55.77" y="90" width="68.45" height="90"/>
			</defs>
			<clipPath id="SVGID_40_">
				<use xlink:href="#SVGID_39_"  style="overflow:visible;"/>
			</clipPath>
			<polygon class="st26" points="80.31,144.18 86.68,159.66 122.7,159.66 122.7,144.18 			"/>
		</g>
		<rect x="94.45" y="159.81" class="st13" width="17.1" height="4.18"/>
		<g>
			<defs>
				<rect id="SVGID_41_" x="55.77" y="90" width="68.45" height="90"/>
			</defs>
			<clipPath id="SVGID_42_">
				<use xlink:href="#SVGID_41_"  style="overflow:visible;"/>
			</clipPath>
			<path class="st27" d="M103,178.47c5.27,0,9.54-4.27,9.54-9.54H93.46C93.46,174.2,97.73,178.47,103,178.47z"/>
			<polyline class="st28" points="78.27,101.08 78.27,91.53 64.62,91.53 64.62,101.08 			"/>
			<path class="st29" d="M64.54,101.14h-1.11c0,0-6.12,0-6.12,6.12v30.35c0,0,0,6.12,6.12,6.12h59.27v-36.47c0,0,0-6.12-6.12-6.12
				H78.42"/>
			<path class="st30" d="M71.7,136.83c2.23,0,4.04-1.81,4.04-4.04c0-2.23-1.81-4.04-4.04-4.04s-4.04,1.81-4.04,4.04
				C67.66,135.02,69.47,136.83,71.7,136.83z"/>
		</g>
	</g>
</g>
<g id="Layer_3_1_">
	<g>
		<defs>
			<rect id="SVGID_43_" x="57.92" y="90" width="64.17" height="90"/>
		</defs>
		<clipPath id="SVGID_44_">
			<use xlink:href="#SVGID_43_"  style="overflow:visible;"/>
		</clipPath>
		<path class="st31" d="M64.92,169.35c2.43,2.03,16.22,5.12,25.08,5.12s22.65-3.09,25.08-5.12l1.64-33.87
			c-0.03-2.18-1.81-3.94-4-3.94H67.27c-2.19,0-3.97,1.76-4,3.94L64.92,169.35z M90,179.82c-4.62,0-11.73-0.92-17.71-2.29
			c-8.83-2.02-12.64-4.27-12.71-7.52l-1.67-34.35c0-0.04,0-0.09,0-0.13c0-5.16,4.2-9.36,9.36-9.36h45.45c5.16,0,9.36,4.2,9.36,9.36
			c0,0.04,0,0.09,0,0.13l-1.67,34.35c-0.06,3.24-3.87,5.49-12.7,7.52C101.73,178.9,94.62,179.82,90,179.82"/>
		<path class="st31" d="M87.23,159.5h5.54c-0.43-2.37-1.1-5.72-1.92-8.56c-0.31-1.09,0.1-2.27,1.02-2.92
			c0.86-0.61,1.38-1.61,1.38-2.66c0-1.79-1.46-3.25-3.26-3.25c-1.79,0-3.25,1.46-3.25,3.25c0,1.05,0.52,2.04,1.38,2.66
			c0.93,0.66,1.34,1.83,1.02,2.92C88.32,153.79,87.65,157.13,87.23,159.5 M95.93,164.86H84.07c-0.78,0-1.52-0.34-2.03-0.93
			c-0.51-0.59-0.74-1.37-0.62-2.14c0.04-0.25,0.85-5.72,2.14-10.73c-1.38-1.56-2.17-3.59-2.17-5.71c0-4.75,3.86-8.61,8.61-8.61
			c4.75,0,8.61,3.86,8.61,8.61c0,2.12-0.79,4.15-2.17,5.71c1.29,5,2.1,10.47,2.14,10.72c0.11,0.77-0.11,1.55-0.62,2.14
			C97.45,164.52,96.71,164.86,95.93,164.86"/>
		<path class="st31" d="M112.84,131.56c-1.48,0-2.68-1.2-2.68-2.68v-12.61c0-9.61-3.27-21.07-18.86-21.07s-18.86,11.46-18.86,21.07
			v12.61c0,1.48-1.2,2.68-2.68,2.68c-1.48,0-2.68-1.2-2.68-2.68v-12.61c0-16.79,8.83-26.43,24.22-26.43
			c15.39,0,24.22,9.63,24.22,26.43v12.61C115.52,130.36,114.32,131.56,112.84,131.56"/>
	</g>
</g>
</svg>
